<svg width="122" height="30" viewBox="0 0 122 30" fill="none" xmlns="http://www.w3.org/2000/svg">
<path d="M55.8649 24.5674C55.8649 24.5674 55.0541 24.8107 53.9189 24.5674C52.8649 24.3242 51.8108 23.9188 51.8108 22.8647V13.135H55.9459L54.973 8.02687H51.8108V0.486328L44.1081 1.62146V13.9458C42.4865 9.40525 38.1081 6.08092 33 6.08092C27.973 6.08092 23.6757 9.24308 21.973 13.7025V10.135C21.973 10.135 20.3514 6.56741 12.7297 6.56741C10.9459 6.56741 9.24324 6.81065 7.7027 7.13498V0.486328L0 1.62146V29.3512H7.7027V12.8107C9.40541 12.4863 10.5405 12.4052 12.0811 12.7296C13.2162 12.8917 14.1892 13.3782 14.1892 14.9188V29.4323H21.8919V22.135C23.5946 26.5944 27.8919 29.7566 32.9189 29.7566C38.027 29.7566 42.4054 26.5134 44.027 21.9728V27.3242C44.027 27.3242 46.9459 29.4323 51.5676 29.4323C56.1892 29.4323 57.1622 28.7025 57.1622 28.7025L55.8649 24.5674ZM33 23.3512C29.6757 23.3512 28.2162 20.5944 28.2162 17.9188C28.2162 15.2431 29.6757 12.4863 33 12.4863C36.3243 12.4863 37.7838 15.2431 37.7838 17.9188C37.7838 20.5944 36.3243 23.3512 33 23.3512Z" fill="#FFA726"/>
<path d="M70.9448 0C68.7556 0 66.9719 1.78378 66.9719 3.97297C66.9719 6.16216 68.7556 7.94595 70.9448 7.94595C73.134 7.94595 74.9178 6.16216 74.9178 3.97297C74.9178 1.78378 73.134 0 70.9448 0ZM67.0529 28.9459H74.7556V9.72973H67.0529V28.9459ZM57.4043 28.8649H65.107V0.486487L57.4043 1.62162V28.8649ZM109.702 24.4054C107.431 23.8378 106.215 22.7027 105.729 21.0811H121.458V18.8108C121.458 10.8649 116.026 6.08108 109.783 6.08108C104.837 6.08108 100.539 9.16216 98.8367 13.5405V10.1351C98.8367 10.1351 95.9989 6.72973 89.3502 6.40541C82.7016 6.08108 76.8638 7.45946 76.8638 7.45946V29.2703H84.5665V12.8108C86.3502 12.4865 87.4043 12.4054 88.9448 12.6486C90.08 12.8108 91.0529 13.2973 91.0529 14.9189V29.2703H98.7556V22.2162C100.458 26.5946 104.756 29.6757 109.702 29.6757C114.08 29.6757 117.242 28.4595 119.431 25.7027L116.756 23.1081C114.161 24.8108 111.161 24.7297 109.702 24.4054ZM109.783 12C112.864 12 114.161 14.2703 114.323 16.2162H105.08C105.242 14.1892 106.702 12 109.783 12Z" fill="#6F9FEC"/>
</svg>